{
  "$schema": "https://json.schemastore.org/block.json",
  "apiVersion": 2,
  "name": "mehne/tower-recent-posts-formate",
  "title": "Neuste Beiträge Formate (Tower Productions)",
  "icon": "networking",
  "category": "widgets",
  "editorScript": "file:./build/index.js"
}