{
	"$schema": "https://json.schemastore.org/block.json",
	"apiVersion": 2,
	"name": "web-definer/read-more-toggle",
	"title": "Auklapptext mit Button",
	"icon": "format-aside",
	"category": "layout",
	"editorScript": "file:./build/index.js",
	"attributes": {
		"linkText": {
			"type": "string",
			"default": "weiterlesen"
		},
		"blockId": {
			"type": "string"
		}
	}
}