{
	"$schema": "https://json.schemastore.org/block.json",
    "apiVersion": 2,
    "name": "web-definer/bs5-button",
    "title": "Button (Bootstrap5)",
    "icon": "admin-links",
    "category": "common",
	"description": "Bitte Text für den Button und Link für das Ziel eingeben. Zusätzlich kann in den Block-Einstellungen die Optik des Buttons gewählt werden.",
    "editorScript": "file:./build/index.js",
    "attributes": {
		"btn_text": {
			"type": "string",
			"selector": ".btn_text"
		},
		"ctaurl": {
			"type": "string"
		},
		"btn_type": {
			"type": "string",
			"default": "btn-primary"
		},
		"targetBlank": {
			"type": "boolean"
		}
	},
    "supports": {
		"align": true
	}
}