{
	"$schema": "https://json.schemastore.org/block.json",
    "apiVersion": 2,
    "name": "web-definer/intro-image",
    "title": "Bild(er) mit Überlagerung eines Icons",
    "icon": "format-aside",
    "category": "layout",
    "editorScript": "file:./build/index.js",
    "attributes": {
      "headline": {
        "type": "string"
      },
      "byline": {
        "type": "string"
      }
	}
}